module main

go 1.19

require (
	github.com/go-sql-driver/mysql v1.7.0
	gorm.io/driver/mysql v1.4.7
	gorm.io/driver/postgres v1.4.8
	gorm.io/gorm v1.24.5
)

require (
	github.com/jackc/pgpassfile v1.0.0 // indirect
	github.com/jackc/pgservicefile v0.0.0-20221227161230-091c0ba34f0a // indirect
	github.com/jackc/pgx/v5 v5.3.0 // indirect
	github.com/jinzhu/inflection v1.0.0 // indirect
	github.com/jinzhu/now v1.1.5 // indirect
	golang.org/x/crypto v0.6.0 // indirect
	golang.org/x/text v0.7.0 // indirect
)
