module ftpservertest

go 1.14

require (
	github.com/davecgh/go-spew v1.1.1 // indirect
	github.com/jlaffaye/ftp v0.0.0-20210307004419-5d4190119067
	github.com/kr/text v0.2.0 // indirect
	github.com/niemeyer/pretty v0.0.0-20200227124842-a10e7caefd8e // indirect
	github.com/stretchr/testify v1.7.0 // indirect
	gopkg.in/check.v1 v1.0.0-20200227125254-8fa46927fb4f // indirect
	gopkg.in/yaml.v3 v3.0.0-20210107192922-496545a6307b // indirect
)
